%YAML 1.1
%TAG !u! tag:unity3d.com,2011:
--- !u!114 &11400000
MonoBehaviour:
  m_ObjectHideFlags: 0
  m_CorrespondingSourceObject: {fileID: 0}
  m_PrefabInstance: {fileID: 0}
  m_PrefabAsset: {fileID: 0}
  m_GameObject: {fileID: 0}
  m_Enabled: 1
  m_EditorHideFlags: 0
  m_Script: {fileID: 11500000, guid: 2ad5539346e06aa43a227d458b54aff1, type: 3}
  m_Name: Weapon_LlaveInglesa
  m_EditorClassIdentifier: 
  name: Llave Inglesa
  icon: {fileID: 21300000, guid: f6877cbcf524b6b4e8d3d29f5033c364, type: 3}
  showInInventory: 1
  itemType: 2
  weaponPrefab: {fileID: 5177110228355886785, guid: 03dff88eee0f2774c9d666405184308b,
    type: 3}
