%YAML 1.1
%TAG !u! tag:unity3d.com,2011:
--- !u!114 &11400000
MonoBehaviour:
  m_ObjectHideFlags: 0
  m_CorrespondingSourceObject: {fileID: 0}
  m_PrefabInstance: {fileID: 0}
  m_PrefabAsset: {fileID: 0}
  m_GameObject: {fileID: 0}
  m_Enabled: 1
  m_EditorHideFlags: 0
  m_Script: {fileID: 11500000, guid: 2ad5539346e06aa43a227d458b54aff1, type: 3}
  m_Name: Weapon_ShotGun
  m_EditorClassIdentifier: 
  name: Shotgun
  icon: {fileID: 21300000, guid: 8cbb10368086f014a8b7fc8932e7f436, type: 3}
  showInInventory: 1
  itemType: 2
  weaponPrefab: {fileID: 8323776800172828795, guid: 31d97e822763d1f4cb769f7e3f7f7333,
    type: 3}
